!240Ì !120Ê !120È;!240Ç,!240Ç,!240Ç,!240Ç,!240Ç,!240Ç
!120Ì !120Í !120Ì;!120Ê,!120Ê,!120Ê,!120Ê,!120Ê,!120Ê
!60Å !60Ç !60Ï;!180Ì,!180Ì,!180Ì,!180Ì,!180Ì,!180Ì
!0Î !240Ì !60Î;!60Ë,!60Ë,!60Ë,!60Ë,!60Ë,!60Ë
!0È !240Ñ !120È;!60Ç,!60Ç,!60Ç,!60Ç,!60Ç,!60Ç
!40Ï !120Î !120Ï;!0Ï,!0Ï,!0Ï,!0Ï,!0Ï,!0Ï
!60Å !60Ç !60È;!60Ê,!60Ê,!60Ê,!60Ê,!60Ê,!60Ê
!60Ë !0Ë !720Ì;!0Ì,!0Ì,!0Ì,!0Ì,!0Ì,!0Ì
!40Å !40Ç !60Å;!60Ç,!60Ç,!60Ç,!60Ç,!60Ç,!60Ç
!120Î !120Ï !0Ï;!120Î,!120Î,!120Î,!120Î,!120Î,!120Î
!120Ã !120Ç !120Å;!120Ã,!120Ã,!120Ã,!120Ã,!120Ã,!120Ã
!0Ê !60Ì !60Ê;!240Ì,!240Ì,!240Ì,!240Ì,!240Ì,!240Ì
!300Ã !120Â !0Â;!60Ã,!60Ã,!60Ã,!60Ã,!60Ã,!60Ã
!720Ê !480Ï !0Ï;!60Ñ,!60Ñ,!60Ñ
!120Ã !120Â !120À;!360Â,!360Â,!360Â,!360Â,!360Â,!360Â
!120Ã !120Ç !120Ã;!120È,!120È,!120È,!120È,!120È,!120È
!60Î !60Ï !60Ñ;!60Ï,!60Ï,!60Ï,!60Ï,!60Ï,!60Ï
!120Å !120Ç !120Ã;!120¾,!120¾,!120¾,!120¾,!120¾,!120¾
!120Î !240Ì !720Ê;!60Ã,!60Ã,!60Ã,!60Ã,!60Ã,!60Ã
!120Â !60Ã !60Â;!120À,!120À,!120À,!120À,!120À,!120À
!120È !120Ç !120È;!120Å,!120Å,!120Ç,!120Å,!120Å,!120Ç,!120Å,!120Å,!120Ç,!120Å,!120Å,!120Ç,!120Å,!120Å,!120Ç,!120Å,!120Å,!120Ç
!120È !120Ç !120Å;!120Ã,!120Ã,!120Ç,!120Ç,!120Ç,!120Ç,!120Ã,!120Ã,!120Ç,!120Ç,!120Ç,!120Ç,!120Ã,!120Ã,!120Ç,!120Ç,!120Ç,!120Ç
!60É !60Ê !60É;!40Ê,!40Ê,!40Ê,!40Ê,!40Ê,!40Ê
!120È !60Ç !300Ã;!120Â,!120Â,!120Â,!120Â,!120Â,!120Â
!120Ê !120È !240Ç;!480Å,!480Å,!480Å,!480Å,!480Å,!480Å,!480Å,!480Å,!480Å,!480Å,!480Å,!480Å
!240Ê !540Å !60Ç;!120È,!120È,!120È,!120È,!120È,!120È
!0É !720Ê !480Ï;!0Ï,!0Ï,!0Ï
!120Å !120Ç !120È;!120Ê,!120Ê,!120Ê,!120Ê,!120Ê,!120Ê,!120Ê,!120Ê,!120Ê,!120Ê,!120Ê,!120Ê
!480Ï !0Ï !60Ñ;!60Ï,!60Ï,!60Ï,!60Ï,!60Ï,!60Ï
!120Ì !240Ê !540Å;!60Ç,!60Ç,!60Ç,!60Ç,!60Ç,!60Ç
!60Ç !60Å !60Ã;!60Å,!60Å,!60Å,!60Å,!60Å,!60Å
!240Ï !120Î !0Î;!360Ì,!360Ì,!360Ì,!360Ì,!360Ì,!360Ì
!120Ï !0Ï !120Î;!120Ì,!120Ì,!120Ì,!120Ì,!120Ì,!120Ì
!480Ç !0Ç !60É;!60Ç,!60Ç,!60Ç,!60Ç,!60Ç,!60Ç
!60Ç !60Å !60Ç;!60Ï,!60Ï,!60Ï,!60Ï,!60Ï,!60Ï
!40Å !40Ã !120Â;!120Ã,!120Ã,!120Ã,!120Ã,!120Ã,!120Ã
!120É !120Ç !120Å;!240Ï,!240Ï,!240Ï,!240Ï,!240Ï,!240Ï
!120Ã !120Â !240À;!120Ê,!120Ê,!120Ê,!120Ê,!120Ê,!120Ê
!40Ç !60Å !60Ç;!60È,!60È,!60È,!60È,!60È,!60È
!60Ã !360Å !60Ç;!60Å,!60Å,!60Å,!60Å,!60Å,!60Å
!120Â !240À !120Ê;!420É,!420É,!420É,!420É,!420É,!420É
!480Ì !480Ï !60Ñ;!60Ï,!60Ï,!60Ï,!60Ï,!60Ï,!60Ï
!60Ï !240Ñ !120Ó;!240Ñ,!240Ñ,!240Ñ,!240Ñ,!240Ñ,!240Ñ
!0Ç !60É !60Ç;!240É,!240É,!240É,!240É,!240É,!240É
!120È !120Ç !240Å;!480Ã,!480Ã,!480Ã,!480Ã,!480Ã,!480Ã
!60Ì !60Ê !60É;!0É,!0É,!0É,!0É,!0É,!0É
!120È !240Ç !480Å;!60Ï,!60Ï,!120Ç,!120Ç,!60Ï,!60Ï,!120Ç,!120Ç,!60Ï,!60Ï,!120Ç,!120Ç
!360Ì !120Ç !60È;!60Ç,!60Ç,!60Ç,!60Ç,!60Ç,!60Ç
!60Ï !120Ñ !240Ï;!240Î,!240Î,!240Î,!240Î,!240Î,!240Î
!60Â !360Ã !60Å;!60Ã,!60Ã,!60Ã,!60Ã,!60Ã,!60Ã
!60Ñ !60Ï !60Ñ;!60Ï,!60Ï,!60Ï,!60Ï,!60Ï,!60Ï
!0Å !480Ã !120Å;!120Ç,!120Ç,!120Ç,!120Ç,!120Ç,!120Ç
!120Í !120Ì !120Ê;!120Ì,!120Ì,!120Ì,!120Ì,!120Ì,!120Ì
!120Ê !120Ì !120È;!120Ã,!120Ã,!120Ã,!120Ã,!120Ã,!120Ã
!120Ó !240Ñ !120Ï;!120Î,!120Î,!120Î,!120Î,!120Î,!120Î
!120Ê !120Ì !120Í;!120Ì,!120Ì,!120Ì,!120Ì,!120Ì,!120Ì
!120Ã !60Å !60Ã;!120Â,!120Â,!120Â,!120Â,!120Â,!120Â
!60Ñ !60Ï !60Î;!60Ï,!60Ï,!60Ï,!60Ï,!60Ï,!60Ï
!120Â !120Ã !60Å;!60Ã,!60Ã,!60Ã,!60Ã,!60Ã,!60Ã
!120Í !240Ì !120Ê;!120È,!120È,!120È,!120È,!120È,!120È
!60Ê !60É !40Ê;!40É,!40É,!40É,!40É,!40É,!40É
!40Ñ !40Ï !40Ñ;!40Ï,!40Ï,!40Ï,!40Ï,!40Ï,!40Ï,!40Ï,!40Ï,!40Ï,!40Ï,!40Ï,!40Ï
!120È !120Ì !120Ê;!120È,!120È,!120È,!120È,!120È,!120È
!0Ï !60Ñ !60Ï;!240Ñ,!240Ñ,!240Ñ,!240Ñ,!240Ñ,!240Ñ
!240Å !480Ã !240Ï;!120Î,!120Î,!120Î,!120Î,!120Î,!120Î
!120È !120Ì !120È;!120Î,!120Î,!120Î,!120Î,!120Î,!120Î
!60Ç !60É !60Ê;!60É,!60É,!60É,!60É,!60É,!60É
!60É !0É !720Ê;!480Ï,!60Å,!480Ï,!60Å,!480Ï,!60Å
!60Ï !360Ñ !120Î;!240Ì,!240Ì,!240Ì,!240Ì,!240Ì,!240Ì
!60Ã !60Â !600Ã;!480Ç,!480Ç,!480Ç,!480Ç,!480Ç,!480Ç
!120Å !120Ã !120Â;!240À,!240À,!600Ã,!600Ã,!240À,!240À,!600Ã,!600Ã,!240À,!240À,!600Ã,!600Ã
!120Î !240Ì !480Ë;!240Ç,!240Ç,!240Ç,!240Ç,!240Ç,!240Ç
!60È !60Ê !120Ì;!0Ì,!0Ì,!0Ì,!0Ì,!0Ì,!0Ì
!60Ç !240É !120Ê;!0Ê,!0Ê,!0Ê,!0Ê,!0Ê,!0Ê
!120Ê !120É !120Ç;!120Å,!120Å,!120Å,!120Å,!120Å,!120Å
!120À !120Å !600È;!120Ê,!120Ê,!120Ê,!120Ê,!120Ê,!120Ê
!120Å !120À !120Å;!600È,!600È,!600È,!600È,!600È,!600È
!120Ç !120Ã !120È;!120Ê,!120Ê,!120Ê,!120Ê,!120Ê,!120Ê
!60Î !240Ï !120Î;!0Î,!0Î,!0Î,!0Î,!0Î,!0Î
!60Ê !240Ì !120Í;!240Ì,!240Ì,!240Ì,!240Ì,!240Ì,!240Ì
!60Ã !60Å !60Ã;!60Å,!40Å,!60Å,!40Å,!60Å,!40Å,!60Å,!40Å,!60Å,!40Å,!60Å,!40Å
!120Ç !990Å !480Ã;!480Ç,!480Ç,!480Ç,!480Ç,!480Ç,!480Ç
!0À !720¾ !480Ê;!0Ê,!0Ê,!0Ê,!0Ê,!0Ê,!0Ê
!120Ã !120Â !600Ã;!120¾,!120¾,!120¾,!120¾,!120¾,!120¾
!0Ë !30Ì !30Ë;!420Ì,!420Ì,!420Ì,!420Ì,!420Ì,!420Ì
!60È !120Ç !60È;!60Ç,!60Ç,!60Ç,!60Ç,!60Ç,!60Ç
!240Ï !480Ç !240É;!0É,!0É,!0É,!0É,!0É,!0É
!60Ç !60È !60Ê;!120Ì,!120Ì,!120Ì,!120Ì,!120Ì,!120Ì
!600Ã !120¾ !120Ã;!120Â,!120Â,!120Â,!120Â,!120Â,!120Â
!40Ç !40Å !40Ç;!40Å,!40Å,!40Å,!60Å,!40Å,!40Å,!40Å,!60Å,!40Å,!40Å,!40Å,!60Å,!40Å,!40Å,!40Å,!60Å,!40Å,!40Å,!40Å,!60Å,!40Å,!40Å,!40Å,!60Å
!180Ë !0Ë !480Ì;!120Ã,!120Ã,!120Ã,!120Ã,!120Ã,!120Ã
!120Ë !60Î !60Ï;!120Ñ,!120Ñ,!120Ñ,!120Ñ,!120Ñ,!120Ñ
!240Ñ !120Ï !120Î;!240Ì,!240Ì,!240Ì,!240Ì,!240Ì,!240Ì
!240Ï !240Î !0Î;!240Ì,!240Ì,!240Ì,!240Ì,!240Ì,!240Ì
!60Ç !120È !120Ç;!120Å,!120Å,!120Å,!120Å,!120Å,!120Å
!60Ï !60Ñ !60Ï;!60Ñ,!40Ñ,!60Ñ,!40Ñ,!60Ñ,!40Ñ,!60Ñ,!40Ñ,!60Ñ,!40Ñ,!60Ñ,!40Ñ
!120Ï !120Î !240Ì;!720Ê,!720Ê,!720Ê,!720Ê,!720Ê,!720Ê
!120Ï !120Î !120Ì;!240Ê,!240Ê,!240Ê,!240Ê,!240Ê,!240Ê
!480Ì !120Ã !120Â;!120À,!120À,!120À,!120À,!120À,!120À
!240Ç !480Å !120Ç;!120È,!120È,!120È,!120È,!120È,!120È
!60Ê !120Ì !120Ê;!120É,!120É,!120É,!120É,!120É,!120É
!120Ê !120È !120Ç;!240Å,!120È,!120È,!120È,!240Å,!120È,!120È,!120È,!240Å,!120È,!120È,!120È,!240Å,!120È,!120È,!120È,!240Å,!120È,!120È,!120È,!240Å,!120È,!120È,!120È
!240Ñ !120È !60Ç;!300Ã,!300Ã,!300Ã,!300Ã,!300Ã,!300Ã
!990Å !480Ã !480Ç;!480Ì,!480Ì,!480Ì,!480Ì,!480Ì,!480Ì
!60Â !60Ã !60Å;!60Ã,!60Ã,!60Ã,!60Ã,!60Ã,!60Ã
!480Ï !60Ñ !60Ï;!60Î,!60Î,!60Î,!60Î,!60Î,!60Î
!120Ñ !120Ï !120Î;!120Ì,!120Ì,!120Ì,!120Ì,!120Ì,!120Ì
!60Ñ !60Ó !60Ñ;!60Ï,!60Ï,!60Ï,!60Ï,!60Ï,!60Ï
!120Å !120Â !120Å;!120È,!120È,!120È,!120È,!120È,!120È
!720Ê !60Å !60Ã;!360Å,!360Å,!360Å
!60Ï !180Î !60Ñ;!180Ï,!180Ï,!180Ï,!180Ï,!180Ï,!180Ï
!120Ñ !240Ï !240Î;!0Î,!0Î,!0Î,!0Î,!0Î,!0Î
!120Ì !60Ê !60É;!60Ç,!60Ç,!60Ç,!60Ç,!60Ç,!60Ç
!120Ç !120Ã !120¾;!120Ã,!120Ã,!120Ã,!120Ã,!120Ã,!120Ã
!120Ì !120È !120Ã;!120È,!120È,!120È,!120È,!120È,!120È
!120Î !240Ì !60Î;!60Ë,!60Ë,!60Ë,!60Ë,!60Ë,!60Ë
!120Ì !120È !120Î;!120Ï,!120Ï,!120Ï,!120Ï,!120Ï,!120Ï
!60Ì !60Î !60Ï;!180Î,!180Î,!180Î,!180Î,!180Î,!180Î
!0Î !360Ì !120Ç;!60È,!60È,!60È,!60È,!60È,!60È
!120Â !0Â !360Ã;!60Å,!60Å,!60Å
!120Ç !240Å !480Ã;!240Ï,!240Ï,!240Ï,!240Ï,!240Ï,!240Ï
!240Ç !60Ì !60Î;!240Ï,!240Ï,!240Ï,!240Ï,!240Ï,!240Ï
!480Ç !480Ì !480Ï;!60Ñ,!60Ñ,!60Ñ,!60Ñ,!60Ñ,!60Ñ
!30Ë !420Ì !60Ñ;!60Ó,!60Ó,!60Ó,!60Ó,!60Ó,!60Ó
!120É !120Ç !990Å;!480Ã,!480Ã,!480Ã,!480Ã,!480Ã,!480Ã
!40Ê !40É !40Ê;!240É,!240É,!240É,!240É,!240É,!240É
!40É !40Ê !240É;!240Ì,!240Ì,!240Ì,!240Ì,!240Ì,!240Ì
!180Ê !60Ì !60Ê;!60É,!60É,!60É,!60É,!60É,!60É
!0Ì !120Ë !60Î;!60Ï,!60Ï,!60Ï,!60Ï,!60Ï,!60Ï
!0Ë !720Ì !0Ì;!120Ê,!120Ê,!120Ê,!120Ê,!120Ê,!120Ê
!60Ê !60É !0É;!720Ê,!720Ê,!720Ê,!720Ê,!720Ê,!720Ê
!60Ï !60Î !60Ì;!60Î,!60Î,!60Î,!60Î,!60Î,!60Î
!0É !180Ê !60Ì;!60Ê,!60Ê,!60Ê,!60Ê,!60Ê,!60Ê
!60Ì !60Ê !240Ì;!120Í,!120Í,!120Í,!120Í,!120Í,!120Í
!120Ç !120È !60Ê;!60È,!60È,!60È,!60È,!60È,!60È
!60Ï !60Î !60Ï;!60Ñ,!60Ñ,!60Ñ,!60Ñ,!60Ñ,!60Ñ
!60Ê !60È !120Ç;!60È,!60È,!60È,!60È,!60È,!60È
!360Ã !60Å !60Ã;!60Â,!60Â,!360Å,!60Â,!60Â,!360Å,!60Â,!60Â,!360Å
!240É !240Ì !120Ñ;!120Ï,!120Ï,!120Ï,!120Ï,!120Ï,!120Ï
!120Å !600È !120Ê;!120È,!120È,!120È,!120È,!120È,!120È
!40Ã !40Å !40Ã;!40Å,!120Â,!40Å,!120Â,!40Å,!120Â,!40Å,!120Â,!40Å,!120Â,!40Å,!120Â
!60Î !180Ë !0Ë;!480Ì,!480Ì,!480Ì,!480Ì,!480Ì,!480Ì
!60Î !180Ì !60Ê;!180È,!180È,!180È,!180È,!180È,!180È
!120Ì !0Ì !120Ê;!120È,!120È,!120È,!120È,!120È,!120È
!120Â !0Â !60Ã;!60Â,!60Â,!60Â,!60Â,!60Â,!60Â
!60Ã !40Å !40Ã;!40Å,!40Å,!40Å,!40Å,!40Å,!40Å
!240Ì !480Ë !240Ç;!60Ì,!60Ì,!60Ì,!60Ì,!60Ì,!60Ì
!120È !120Ê !120Ã;!120Ç,!120Ç,!120Ç,!120Ç,!120Ç,!120Ç
!30Ì !30Ë !420Ì;!60Ñ,!60Ñ,!60Ñ,!60Ñ,!60Ñ,!60Ñ
!120Ì !0Ì !120Ë;!60Î,!60Î,!60Î,!60Î,!60Î,!60Î
!120Ç !120Å !240Ï;!480Ç,!480Ç,!480Ç,!480Ç,!480Ç,!480Ç
!60Ã !60Å !40Ç;!40Å,!40Å,!40Å,!40Å,!40Å,!40Å
!60Ñ !60Ï !360Ñ;!120Î,!120Î,!120Î,!120Î,!120Î,!120Î
!120Â !120À !360Â;!120Ì,!120Ì,!120Ì,!120Ì,!120Ì,!120Ì
!480Ç !240É !0É;!180Ê,!180Ê,!180Ê,!180Ê,!180Ê,!180Ê
!240Ñ !120Ó !240Ñ;!120Ï,!120Ï,!120Ï,!120Ï,!120Ï,!120Ï
!60Ã !60Â !360Ã;!60Å,!60Å,!60Å,!60Å,!60Å,!60Å
!60Ç !60Ï !180Ì;!60Î,!60Î,!60Î,!60Î,!60Î,!60Î
!240Î !0Î !240Ì;!60Î,!60Î,!60Î,!60Î,!60Î,!60Î
!120È !120Ê !120È;!120Ç,!120Ç,!120Ç,!120Ç,!120Ç,!120Ç
!240Ì !120Í !240Ì;!120Ê,!120Ê,!120Ê,!120Ê,!120Ê,!120Ê
!120È !120Ê !120Ì;!120Í,!120Í,!120Í,!120Í,!120Í,!120Í
!120Ì !120Ê !120Ì;!120È,!120È,!120È,!120È,!120È,!120È
!40Å !40Ã !40Å;!40Ã,!40Ã,!40Ã,!40Ã,!40Ã,!40Ã,!40Ã,!40Ã,!40Ã,!40Ã,!40Ã,!40Ã
!60Ç !300Ã !120Â;!0Â,!0Â,!0Â,!0Â,!0Â,!0Â
!120Ì !120Ê !120É;!120Ç,!120Ç,!120Ç,!120Ç,!120Ç,!120Ç
!0Ì !120Ê !120È;!120Ç,!240Ç,!120Ç,!240Ç,!120Ç,!240Ç,!120Ç,!240Ç,!120Ç,!240Ç,!120Ç,!240Ç
!120Ì !120Ê !120È;!120Ç,!120Ç,!120Ç,!120Ç,!120Ç,!120Ç
!60Å !60Ã !120Â;!60Ã,!60Ã,!60Ã,!60Ã,!60Ã,!60Ã
!120Ê !420É !60Ê;!120Ì,!120Ì,!120Ì,!120Ì,!120Ì,!120Ì
!180Ì !60Î !180Ë;!0Ë,!0Ë,!0Ë,!0Ë,!0Ë,!0Ë
!120À !360Â !120Ì;!0Ì,!0Ì,!0Ì,!0Ì,!0Ì,!0Ì
!60Î !60Ï !180Î;!60Ñ,!60Ñ,!60Ñ,!60Ñ,!60Ñ,!60Ñ
!120Â !120Å !120È;!120Ì,!120Ì,!120Ì,!120Ì,!120Ì,!120Ì
!120Ê !0Ê !120É;!120Ç,!120Ç,!120Ç,!120Ç,!120Ç,!120Ç
!360Â !120Ì !0Ì;!120Ë,!120Ë,!120Ë,!120Ë,!120Ë,!120Ë
!120Å !0Å !480Ã;!120Å,!120Å,!120Å,!120Å,!120Å,!120Å
!60Ñ !60Ï !240Ñ;!120Ó,!120Ó,!120Ó,!120Ó,!120Ó,!120Ó
!60Å !60Ã !40Å;!40Ã,!40Ã,!40Ã,!40Ã,!40Ã,!40Ã
!60Ï !180Ì !60Î;!180Ë,!180Ë,!180Ë,!180Ë,!180Ë,!180Ë
!480Å !120Ç !120È;!60Ê,!60Ê,!60Ê,!60Ê,!60Ê,!60Ê
!180Î !60Ñ !180Ï;!60Î,!60Î,!60Î,!60Î,!60Î,!60Î
!120Î !0Î !360Ì;!120Ç,!120Ç,!120Ç,!120Ç,!120Ç,!120Ç
!120Ç !120Å !120Ç;!120Ã,!120È,!120Ã,!120È,!120Ã,!120È,!120Ã,!120È,!120Ã,!120È,!120Ã,!120È
!480Ë !240Ç !60Ì;!60Î,!60Î,!60Î,!60Î,!60Î,!60Î
!120Ç !120Å !120Ã;!120Â,!120Â,!120Â,!120Â,!120Â,!120Â,!120Â,!120Â,!120Â,!120Â,!120Â,!120Â
!720Ê !60Ã !60Â;!360Ã,!360Ã,!360Ã,!360Ã,!360Ã,!360Ã
!60Î !60Ì !60Î;!60Ï,!60Ï,!60Ï,!60Ï,!60Ï,!60Ï
!120Ï !120Ñ !120È;!120Ç,!120Ç,!120Ç,!120Ç,!120Ç,!120Ç
!120È !120Å !120À;!120Å,!120Å,!120Å,!120Å,!120Å,!120Å
!60Â !600Ã !480Ç;!0Ç,!0Ç,!0Ç,!0Ç,!0Ç,!0Ç
!120È !120Å !120Â;!120Å,!120Å,!120Å,!120Å,!120Å,!120Å
!60Ê !120Ì !0Ì;!120Ê,!120Ê,!120Ê,!120Ê,!120Ê,!120Ê
!60Ç !120Å !0Å;!480Ã,!480Ã,!480Ã,!480Ã,!480Ã,!480Ã
!0É !720Ê !60Å;!60Ã,!60Ã,!60Ã
!60È !60Ç !120Å;!0Å,!0Å,!0Å,!0Å,!0Å,!0Å
!240É !120Ê !0Ê;!120É,!120É,!120É,!120É,!120É,!120É
!360Å !60Ç !60Å;!60Ã,!60Ã,!60Ã,!60Ã,!60Ã,!60Ã
!0Ê !120É !120Ç;!990Å,!990Å,!990Å,!990Å,!990Å,!990Å
!0Â !60Ã !60Â;!600Ã,!600Ã,!600Ã,!600Ã,!600Ã,!600Ã
!60Ã !60Â !120À;!0À,!0À,!0À,!0À,!0À,!0À
!60É !60Ç !240É;!120Ê,!120Ê,!120Ê,!120Ê,!120Ê,!120Ê
!60Ë !0Ë !30Ì;!30Ë,!30Ë,!30Ë,!30Ë,!30Ë,!30Ë
!60Å !60Ã !360Å;!60Ç,!60Ç,!60Ç,!60Ç,!60Ç,!60Ç
!60Â !120À !0À;!720¾,!720¾,!720¾,!720¾,!720¾,!720¾
!240Ï !120Î !240Ì;!60Î,!60Î,!60Î,!60Î,!60Î,!60Î
!60Î !60Ë !0Ë;!30Ì,!720Ì,!30Ì,!720Ì,!30Ì,!720Ì,!30Ì,!720Ì,!30Ì,!720Ì,!30Ì,!720Ì
!60Ñ !180Ï !60Î;!180Ì,!180Ì,!180Ì,!180Ì,!180Ì,!180Ì
!120Î !120Ì !240Ê;!540Å,!540Å,!540Å,!540Å,!540Å,!540Å
!120Â !600Ã !120¾;!120Ã,!120Ã,!120Ã,!120Ã,!120Ã,!120Ã
!480Ê !0Ê !60Ì;!60Ê,!60Ê,!60Ê,!60Ê,!60Ê,!60Ê
!60Ó !60Ñ !60Ï;!360Ñ,!360Ñ,!360Ñ,!360Ñ,!360Ñ,!360Ñ
!120Å !240Ï !480Ç;!240É,!240É,!240É,!240É,!240É,!240É
!240Ì !120Ñ !120Ï;!120Î,!120Î,!120Î,!120Î,!120Î,!120Î
!480Ã !120Å !120Ç;!120È,!120È,!120È,!120È,!120È,!120È
!720¾ !480Ê !0Ê;!60Ì,!60Ì,!60Ì,!60Ì,!60Ì,!60Ì
!120È !60Ê !60È;!120Ç,!120Ç,!120Ç,!120Ç,!120Ç,!120Ç
!120¾ !120Ã !120Ç;!120Ã,!120Ã,!120Ã,!120Ã,!120Ã,!120Ã
!60Ì !60Î !240Ï;!120Î,!120Î,!120Î,!120Î,!120Î,!120Î
!60È !60Ç !60Å;!60Ç,!60Ç,!60Ç,!60Ç,!60Ç,!60Ç
!120Î !120Ì !60Ê;!60É,!60É,!60É,!60É,!60É,!60É
!120¾ !120Ã !120Â;!0Â,!0Â,!0Â,!0Â,!0Â,!0Â
!40Ê !240É !240Ì;!120Ñ,!120Ñ,!120Ñ,!120Ñ,!120Ñ,!120Ñ
!240Ì !720Ê !60Ã;!60Â,!60Â,!60Â,!60Â,!60Â,!60Â
!120Ê !120Ã !120Ç;!120Å,!120Å,!120Å,!120Å,!120Å,!120Å
!120Ã !120Â !0Â;!360Ã,!360Ã,!360Ã,!360Ã,!360Ã,!360Ã
!0Ï !120Î !120Ì;!60Ê,!60Ê,!60Ê,!60Ê,!60Ê,!60Ê
!420É !60Ê !120Ì;!120Ê,!120Ê,!120Ê,!120Ê,!120Ê,!120Ê
!40Å !40Ç !40Å;!40Ç,!40Ç,!40Ç,!40Ç,!40Ç,!40Ç,!40Ç,!40Ç,!40Ç,!40Ç,!40Ç,!40Ç,!40Ç,!40Ç,!40Ç,!40Ç,!40Ç,!40Ç
!240Ç !480Å !60Ï;!60Î,!60Î,!60Î,!60Î,!60Î,!60Î
!120È !120Ã !120È;!120Ì,!120Ì,!120Ì,!120Ì,!120Ì,!120Ì
!180Ì !60Ê !180È;!0È,!0È,!0È,!0È,!0È,!0È
!60Å !40Ç !40Å;!40Ç,!40Ç,!40Ç,!40Ç,!40Ç,!40Ç
!420Ì !60Ñ !60Ó;!60Ñ,!60Ñ,!60Ñ,!60Ñ,!60Ñ,!60Ñ
!120È !120Î !120Ï;!120Ñ,!120Ñ,!120Ñ,!120Ñ,!120Ñ,!120Ñ
!360Ñ !120Î !240Ì;!480Ë,!480Ë,!480Ë,!480Ë,!480Ë,!480Ë
!60É !40Ê !40É;!40Ê,!40Ê,!40Ê,!40Ê,!40Ê,!40Ê
!480Ã !240Ï !120Î;!240Ì,!240Ì,!240Ì,!240Ì,!240Ì,!240Ì
!600È !120Ê !120È;!120Ç,!120Ç,!120Ç,!120Ç,!120Ç,!120Ç
!60Ã !60Â !60Ã;!60Å,!60Å,!60Å,!60Å,!60Å,!60Å
!60Ã !120Â !60Ã;!60Â,!60Â,!60Â,!60Â,!60Â,!60Â
!0Â !360Ã !60Å;!60Ã,!60Ã,!60Ã
!720Ì !0Ì !120Ê;!120È,!120È,!120È,!120È,!120È,!120È
!60É !60Ç !60É;!60Ê,!60Ê,!60Ê,!60Ê,!60Ê,!60Ê
!60Î !60Ï !120Ñ;!240Ï,!240Ï,!240Ï,!240Ï,!240Ï,!240Ï
!480Å !60Ï !60Î;!60Ì,!60Ì,!60Ì,!60Ì,!60Ì,!60Ì
!120Ã !120¾ !120Ã;!120Ç,!120Ç,!120Ç,!120Ç,!120Ç,!120Ç
!40Ï !40Ñ !40Ï;!40Ñ,!120Î,!40Ñ,!120Î,!40Ñ,!120Î,!40Ñ,!120Î,!40Ñ,!120Î,!40Ñ,!120Î
!480Ã !480Ç !480Ì;!480Ï,!480Ï,!480Ï,!480Ï,!480Ï,!480Ï
!60Ï !40Ñ !40Ï;!40Ñ,!40Ñ,!40Ñ,!40Ñ,!40Ñ,!40Ñ
!120Å !120È !120Ì;!120Ê,!120Ê,!120Ê,!120Ê,!120Ê,!120Ê
!60Ê !180È !0È;!240Ñ,!240Ñ,!240Ñ,!240Ñ,!240Ñ,!240Ñ
!120Ç !60È !60Ç;!60Å,!120Å,!60Å,!120Å,!60Å,!120Å,!60Å,!120Å,!60Å,!120Å,!60Å,!120Å
!120Ã !120È !120Ì;!120È,!120È,!120È,!120È,!120È,!120È
!60Å !60Ã !60Å;!60Ã,!60Ã,!40Ç,!40Ç,!60Ã,!60Ã,!40Ç,!40Ç,!60Ã,!60Ã,!40Ç,!40Ç
!60Å !60Ã !60Â;!60Ã,!60Ã,!60Ã,!60Ã,!60Ã,!60Ã
!540Å !60Ç !120È;!120Ç,!120Ç,!120Ç,!120Ç,!120Ç,!120Ç
!600Ã !480Ç !0Ç;!60É,!60É,!60É,!60É,!60É,!60É
!120Ã !120È !120Ê;!120Ì,!120Ì,!120Ì,!120Ì,!120Ì,!120Ì
!240É !0É !180Ê;!60Ì,!60Ì,!60Ì,!60Ì,!60Ì,!60Ì
!240Ì !60Î !60Ë;!0Ë,!0Ë,!0Ë,!0Ë,!0Ë,!0Ë,!0Ë,!0Ë,!0Ë,!0Ë,!0Ë,!0Ë
!240À !120Ê !420É;!60Ê,!60Ê,!60Ê,!60Ê,!60Ê,!60Ê
!40Ñ !40Ï !120Î;!120Ï,!120Ï,!120Ï,!120Ï,!120Ï,!120Ï
!120Î !120Ï !120Ñ;!120È,!120È,!120È,!120È,!120È,!120È
!0Ë !480Ì !120Ã;!120Â,!120Â,!120Â,!120Â,!120Â,!120Â
!120Ç !120È !120Å;!120À,!120Â,!120À,!120Â,!120À,!120Â,!120À,!120Â,!120À,!120Â,!120À,!120Â
!120Ç !120È !120Ç;!120Å,!120Å,!120Å,!120Å,!120Å,!120Å
!120À !0À !720¾;!480Ê,!480Ê,!480Ê,!480Ê,!480Ê,!480Ê
!120Ç !120È !120Ê;!120È,!120Ã,!120È,!120Ã,!120È,!120Ã,!120È,!120Ã,!120È,!120Ã,!120È,!120Ã
!180È !0È !240Ñ;!120È,!120È,!120È,!120È,!120È,!120È
!60Ñ !60Ï !40Ñ;!40Ï,!40Ï,!40Ï,!40Ï,!40Ï,!40Ï
!180Ï !60Î !180Ì;!60Ê,!60Ê,!60Ê,!60Ê,!60Ê,!60Ê
!60Ê !60É !60Ç;!60É,!60É,!60É,!60É,!60É,!60É
!120Ñ !120È !120Ç;!120Å,!120Å,!120Å,!120Å,!120Å,!120Å
!40Ã !120Â !120Ã;!60Å,!60Å,!60Å,!60Å,!60Å,!60Å
